/Users/vishalmirani/Documents/TestAutomation/Fender/src/chord/chord_setting.java
/Users/vishalmirani/Documents/TestAutomation/Fender/src/scale/scale_collections.java
/Users/vishalmirani/Documents/TestAutomation/Fender/src/rhythm/rhythm_details.java
/Users/vishalmirani/Documents/TestAutomation/Fender/src/scale/scale_setting.java
/Users/vishalmirani/Documents/TestAutomation/Fender/src/play/play_details.java
/Users/vishalmirani/Documents/TestAutomation/Fender/src/tune/using_fender_tune.java
/Users/vishalmirani/Documents/TestAutomation/Fender/src/master/shop_field_master.java
/Users/vishalmirani/Documents/TestAutomation/Fender/src/user_account/free_user.java
/Users/vishalmirani/Documents/TestAutomation/Fender/src/user_account/registration.java
/Users/vishalmirani/Documents/TestAutomation/Fender/src/master/rhythm_field_master.java
/Users/vishalmirani/Documents/TestAutomation/Fender/src/master/register_field_master.java
/Users/vishalmirani/Documents/TestAutomation/Fender/src/master/configue.java
/Users/vishalmirani/Documents/TestAutomation/Fender/src/tune/tune_auto_manual_pro.java
/Users/vishalmirani/Documents/TestAutomation/Fender/src/tune/ukulele_tune_tips.java
/Users/vishalmirani/Documents/TestAutomation/Fender/src/shop/shop.java
/Users/vishalmirani/Documents/TestAutomation/Fender/src/master/chord_field_master.java
/Users/vishalmirani/Documents/TestAutomation/Fender/src/chord/chord_details.java
/Users/vishalmirani/Documents/TestAutomation/Fender/src/rhythm/rhythm_find_a_beat.java
/Users/vishalmirani/Documents/TestAutomation/Fender/src/master/variable.java
/Users/vishalmirani/Documents/TestAutomation/Fender/src/scale/scale_details.java
/Users/vishalmirani/Documents/TestAutomation/Fender/src/master/local_configue.java
/Users/vishalmirani/Documents/TestAutomation/Fender/src/master/songs_field_master.java
/Users/vishalmirani/Documents/TestAutomation/Fender/src/rhythm/rhythm_setting.java
/Users/vishalmirani/Documents/TestAutomation/Fender/src/master/tune_field_master.java
/Users/vishalmirani/Documents/TestAutomation/Fender/src/master/scale_field_master.java
/Users/vishalmirani/Documents/TestAutomation/Fender/src/tune/need_help_tuning.java
/Users/vishalmirani/Documents/TestAutomation/Fender/src/tune/tune_setting.java
/Users/vishalmirani/Documents/TestAutomation/Fender/src/user_account/navigation_menu.java
/Users/vishalmirani/Documents/TestAutomation/Fender/src/chord/chord_find_a_chord.java
/Users/vishalmirani/Documents/TestAutomation/Fender/src/master/field_master.java
/Users/vishalmirani/Documents/TestAutomation/Fender/src/songs/songs.java
/Users/vishalmirani/Documents/TestAutomation/Fender/src/tune/intermediate_tips.java
/Users/vishalmirani/Documents/TestAutomation/Fender/src/chord/chord_collections.java
/Users/vishalmirani/Documents/TestAutomation/Fender/src/scale/scale_find_a_scale.java
/Users/vishalmirani/Documents/TestAutomation/Fender/src/rhythm/rhythm_metronome.java
/Users/vishalmirani/Documents/TestAutomation/Fender/src/tune/tune_details.java
/Users/vishalmirani/Documents/TestAutomation/Fender/src/master/login_field_master.java
